<!DOCTYPE svg PUBLIC "-//W3C//DTD SVG 1.1//EN" "http://www.w3.org/Graphics/SVG/1.1/DTD/svg11.dtd">

<!-- Uploaded to: SVG Repo, www.svgrepo.com, Transformed by: SVG Repo Mixer Tools -->
<svg fill="#000" width="32px" height="32px" viewBox="0 0 32 32" id="icon" xmlns="http://www.w3.org/2000/svg">

<g id="SVGRepo_bgCarrier" stroke-width="0"/>

<g id="SVGRepo_tracerCarrier" stroke-linecap="round" stroke-linejoin="round"/>

<g id="SVGRepo_iconCarrier"> <defs> <style> .cls-1 { fill: none; } </style> </defs> <path d="M13,2A6.0067,6.0067,0,0,0,7,8H9a4,4,0,0,1,8,0h2A6.0067,6.0067,0,0,0,13,2Z"/> <path d="M21,30H16.5606a4,4,0,0,1-2.7088-1.0566L4.6513,20.4771A2.0018,2.0018,0,0,1,4.77,17.4219a2.0743,2.0743,0,0,1,2.6578.1728L11,20.8569V8a2,2,0,0,1,4,0v7a2,2,0,0,1,4,0v1a2,2,0,0,1,4,0v1a2,2,0,0,1,4,0v7A6,6,0,0,1,21,30Z"/> <rect id="_Transparent_Rectangle_" data-name="&lt;Transparent Rectangle&gt;" class="cls-1" width="32" height="32"/> </g>

</svg>
